\relax 
\citation{Newman2014}
\citation{Sims2015}
\citation{androiddev:sysperms}
\citation{felt:androidpermissions}
\citation{wijesekera:remystified}
\citation{almohri:droidbarrier}
\citation{Hornyack2011}
\citation{enck:taintdroid}
\citation{Nissenbaum2004}
\@writefile{toc}{\contentsline {section}{\numberline {1}Introduction}{4}}
\citation{Felt2012b}
\citation{wijesekera:remystified}
\citation{Felt2012b}
\citation{Felt2012b}
\@writefile{toc}{\contentsline {subsection}{\numberline {1.1}Threat Model}{5}}
\@writefile{toc}{\contentsline {section}{\numberline {2}Understanding User Expectations}{5}}
\newlabel{usenix-paper}{{2}{5}}
\@writefile{toc}{\contentsline {subsection}{\numberline {2.1}Methodology}{5}}
\@writefile{toc}{\contentsline {subsubsection}{\numberline {2.1.1}Data Collection}{5}}
\@writefile{lot}{\contentsline {table}{\numberline {1}{\ignorespaces The 12 permissions recommended by Felt et al.\spacefactor \@m  to be granted via runtime dialogs \cite  {Felt2012b}. These are the \textit  {sensitive permissions} referred to throughout the paper.\relax }}{6}}
\providecommand*\caption@xref[2]{\@setref\relax\@undefined{#1}}
\newlabel{tbl:perm-list}{{1}{6}}
\@writefile{toc}{\contentsline {subsubsection}{\numberline {2.1.2}User Study}{7}}
\newlabel{subfig:exit-survey-p1}{{1a}{8}}
\newlabel{sub@subfig:exit-survey-p1}{{a}{8}}
\newlabel{subfig:exit-survey-p2}{{1b}{8}}
\newlabel{sub@subfig:exit-survey-p2}{{b}{8}}
\newlabel{fig:exit-survey}{{\caption@xref {fig:exit-survey}{ on input line 70}}{8}}
\@writefile{lof}{\contentsline {figure}{\numberline {1}{\ignorespaces Exit Survey Application\relax }}{8}}
\citation{BuchananPCS}
\citation{MalhotraIUIPC}
\@writefile{toc}{\contentsline {subsubsection}{\numberline {2.1.3}Exit Survey}{9}}
\@writefile{toc}{\contentsline {subsection}{\numberline {2.2}Results}{9}}
\citation{Harbach2014b}
\@writefile{lot}{\contentsline {table}{\numberline {2}{\ignorespaces The most frequently requested permissions by invisible applications and services per user/day.\relax }}{10}}
\newlabel{tbl:so_perm}{{2}{10}}
\@writefile{lot}{\contentsline {table}{\numberline {3}{\ignorespaces The applications making the most permission requests while running invisibly, per user/day.\relax }}{10}}
\newlabel{tbl:so_app}{{3}{10}}
\@writefile{toc}{\contentsline {subsubsection}{\numberline {2.2.1}Invisible Permission Requests}{10}}
\@writefile{toc}{\contentsline {subsubsection}{\numberline {2.2.2}Request and Data Exposure Frequency}{11}}
\@writefile{lot}{\contentsline {table}{\numberline {4}{\ignorespaces The sensitive permission requests (per user/day) when requesting applications were visible/invisible to users. ``Data exposed'' refers to the subset of permission-protected requests that resulted in sensitive data being accessed.\relax }}{12}}
\newlabel{tbl:data_exposed_breakdown}{{4}{12}}
\@writefile{toc}{\contentsline {subsubsection}{\numberline {2.2.3}User Expectations}{12}}
\citation{Acquisti05}
\@writefile{toc}{\contentsline {subsection}{\numberline {2.3}Analysis}{13}}
\newlabel{usenix-analysis}{{2.3}{13}}
\@writefile{toc}{\contentsline {subsubsection}{\numberline {2.3.1}Feasibility of Runtime Prompts}{13}}
\citation{phonelab}
\@writefile{toc}{\contentsline {subsubsection}{\numberline {2.3.2}User Modeling}{14}}
\@writefile{toc}{\contentsline {section}{\numberline {3}Android OS Instrumentation}{14}}
\newlabel{instrumentation}{{3}{14}}
\@writefile{toc}{\contentsline {subsection}{\numberline {3.1}Ensuring Coverage}{15}}
\@writefile{toc}{\contentsline {subsubsection}{\numberline {3.1.1}Camera}{15}}
\@writefile{toc}{\contentsline {subsubsection}{\numberline {3.1.2}Settings and Initialization}{16}}
\@writefile{toc}{\contentsline {subsection}{\numberline {3.2}Side Channels}{17}}
\citation{Nielsen1993}
\@writefile{lot}{\contentsline {table}{\numberline {5}{\ignorespaces Amoritized performance difference on benchmarked actions.\relax }}{18}}
\newlabel{tbl:latency-benchmark}{{5}{18}}
\@writefile{toc}{\contentsline {section}{\numberline {4}Performance Evaluation}{18}}
\newlabel{perf-eval}{{4}{18}}
\@writefile{toc}{\contentsline {subsection}{\numberline {4.1}Latency}{18}}
\@writefile{toc}{\contentsline {subsection}{\numberline {4.2}Battery}{19}}
\@writefile{toc}{\contentsline {section}{\numberline {5}Classifier}{19}}
\@writefile{lot}{\contentsline {table}{\numberline {6}{\ignorespaces User actions recorded in settings features.\relax }}{20}}
\newlabel{tbl:settings-fts}{{6}{20}}
\@writefile{toc}{\contentsline {subsection}{\numberline {5.1}Features}{20}}
\newlabel{feature-section}{{5.1}{20}}
\@writefile{toc}{\contentsline {subsubsection}{\numberline {5.1.1}Settings-Related Features}{20}}
\@writefile{toc}{\contentsline {subsubsection}{\numberline {5.1.2}User Behavior Features}{21}}
\citation{wijesekera:remystified}
\@writefile{toc}{\contentsline {subsubsection}{\numberline {5.1.3}Runtime Features}{22}}
\citation{phonelab}
\@writefile{lof}{\contentsline {figure}{\numberline {2}{\ignorespaces Example of a prompt chosen by reservoir sampling that a user would see.\relax }}{23}}
\newlabel{fig:user-prompt}{{2}{23}}
\@writefile{toc}{\contentsline {subsection}{\numberline {5.2}Data Collection}{23}}
\@writefile{toc}{\contentsline {subsection}{\numberline {5.3}Offline Model}{24}}
\@writefile{toc}{\contentsline {subsubsection}{\numberline {5.3.1}Feature Selection}{24}}
\citation{Coe2002}
\@writefile{lot}{\contentsline {table}{\numberline {7}{\ignorespaces Set of features used in SVM and RF classifier.\relax }}{25}}
\newlabel{tbl:classifier-fts}{{7}{25}}
\@writefile{toc}{\contentsline {subsubsection}{\numberline {5.3.2}Model Evaluation}{25}}
\@writefile{lot}{\contentsline {table}{\numberline {8}{\ignorespaces The confusion matrix for logistic mixed-effect regression on a test set of 927.\relax }}{26}}
\newlabel{tbl:conf-matrix-glmer}{{8}{26}}
\@writefile{lot}{\contentsline {table}{\numberline {9}{\ignorespaces The confusion matrix for our SVM classifier on a test set of 927.\relax }}{26}}
\newlabel{tbl:conf-matrix-svm}{{9}{26}}
\@writefile{lot}{\contentsline {table}{\numberline {10}{\ignorespaces The confusion matrix for our random forest classifier on a test set of 927.\relax }}{26}}
\newlabel{tbl:conf-matrix-rf}{{10}{26}}
\citation{enck:taintdroid}
\citation{Lin2012}
\citation{path12}
\citation{felt:demystified}
\citation{enck:taintdroid}
\citation{FTCflashlight}
\citation{Jung2012}
\citation{Thompson2013}
\citation{Felt99Probs}
\citation{choe2013}
\citation{Kelley2013}
\citation{Harbach2014}
\citation{Lin2012}
\citation{Shklovski2014}
\citation{choe2013}
\citation{jeon2011}
\citation{Shebaro2014}
\citation{Hornyack2011}
\citation{fisher2012}
\citation{almuhimedi2015}
\citation{almohri:droidbarrier}
\citation{Gibler2012}
\citation{Zhu2014}
\citation{sadeh2014}
\citation{Liu2014}
\citation{wijesekera:remystified}
\@writefile{toc}{\contentsline {section}{\numberline {6}Related Work}{27}}
\@writefile{toc}{\contentsline {section}{\numberline {7}Future Work}{27}}
\citation{wijesekera:remystified}
\citation{Nissenbaum2004}
\@writefile{toc}{\contentsline {section}{\numberline {8}Conclusion}{28}}
\bibstyle{abbrv}
\bibdata{biblio}
\bibcite{Acquisti05}{1}
\bibcite{almohri:droidbarrier}{2}
\bibcite{almuhimedi2015}{3}
\bibcite{androiddev:sysperms}{4}
\bibcite{BuchananPCS}{5}
\bibcite{choe2013}{6}
\bibcite{Coe2002}{7}
\bibcite{FTCflashlight}{8}
\bibcite{enck:taintdroid}{9}
\bibcite{felt:demystified}{10}
\bibcite{Felt2012b}{11}
\bibcite{Felt99Probs}{12}
\bibcite{felt:androidpermissions}{13}
\bibcite{fisher2012}{14}
\bibcite{Gibler2012}{15}
\bibcite{Harbach2014}{16}
\bibcite{Harbach2014b}{17}
\bibcite{Hornyack2011}{18}
\bibcite{jeon2011}{19}
\bibcite{Jung2012}{20}
\bibcite{Kelley2013}{21}
\bibcite{Lin2012}{22}
\bibcite{Liu2014}{23}
\bibcite{MalhotraIUIPC}{24}
\bibcite{phonelab}{25}
\bibcite{Newman2014}{26}
\bibcite{Nielsen1993}{27}
\bibcite{Nissenbaum2004}{28}
\bibcite{path12}{29}
\bibcite{sadeh2014}{30}
\bibcite{Shebaro2014}{31}
\bibcite{Shklovski2014}{32}
\bibcite{Sims2015}{33}
\bibcite{Thompson2013}{34}
\bibcite{wijesekera:remystified}{35}
\bibcite{Zhu2014}{36}
\@writefile{toc}{\contentsline {section}{\numberline {A}Appendix}{33}}
\@writefile{lot}{\contentsline {table}{\numberline {11}{\ignorespaces The application/permission combinations that needed to be rate limited during the study. The last two columns show the fastest interval recorded and the average of all the intervals recorded before rate-limiting.\relax }}{33}}
\newlabel{tbl:rate-limit}{{11}{33}}
\@writefile{lot}{\contentsline {table}{\numberline {12}{\ignorespaces application/permission combinations that needed to be rate limited during the study. The last two columns show the fastest interval recorded and the average of all the intervals recorded before rate-limiting.\relax }}{34}}
\newlabel{tbl:rate-limit}{{12}{34}}
\newlabel{tbl:significant-apps}{{\caption@xref {tbl:significant-apps}{ on input line 118}}{34}}
\@writefile{lot}{\contentsline {table}{\numberline {13}{\ignorespaces Applications that had a statistically significant correlation with user denial rate, evaluated through logistic mixed-effect regression. A positive effect size indicates that more usage of the application led to a higher denial rate, while a negative effect size indicates that more usage led to a higher allow rate.\relax }}{34}}
\@writefile{lot}{\contentsline {table}{\numberline {14}{\ignorespaces This table contains all of the instrumentation we added. The files are all part of the Android platform, except for \texttt  {ReservoirSampler.java}, which is a class we added. The explanation covers the main idea for each instrumentation point, but we collect hundreds of unique events, which are omitted from this table for space reasons.\relax }}{35}}
\newlabel{tbl:instrumentation-pts}{{14}{35}}
