%!PS-Adobe-3.0 EPSF-3.0
%%DocumentNeededResources: font Helvetica
%%+ font Helvetica-Bold
%%+ font Helvetica-Oblique
%%+ font Helvetica-BoldOblique
%%+ font Symbol
%%Title: R Graphics Output
%%Creator: R Software
%%Pages: (atend)
%%BoundingBox: 0 0 504 504
%%EndComments
%%BeginProlog
/bp  { gs sRGB gs } def
% begin .ps.prolog
/gs  { gsave } bind def
/gr  { grestore } bind def
/ep  { showpage gr gr } bind def
/m   { moveto } bind def
/l  { rlineto } bind def
/np  { newpath } bind def
/cp  { closepath } bind def
/f   { fill } bind def
/o   { stroke } bind def
/c   { newpath 0 360 arc } bind def
/r   { 4 2 roll moveto 1 copy 3 -1 roll exch 0 exch rlineto 0 rlineto -1 mul 0 exch rlineto closepath } bind def
/p1  { stroke } bind def
/p2  { gsave bg fill grestore newpath } bind def
/p3  { gsave bg fill grestore stroke } bind def
/p6  { gsave bg eofill grestore newpath } bind def
/p7  { gsave bg eofill grestore stroke } bind def
/t   { 5 -2 roll moveto gsave rotate
       1 index stringwidth pop
       mul neg 0 rmoveto show grestore } bind def
/ta  { 4 -2 roll moveto gsave rotate show } bind def
/tb  { 2 -1 roll 0 rmoveto show } bind def
/cl  { grestore gsave newpath 3 index 3 index moveto 1 index
       4 -1 roll lineto  exch 1 index lineto lineto
       closepath clip newpath } bind def
/rgb { setrgbcolor } bind def
/s   { scalefont setfont } bind def
% end   .ps.prolog
/sRGB { [ /CIEBasedABC
          << /DecodeLMN
               [ { dup 0.03928 le
                        {12.92321 div}
                        {0.055 add 1.055 div 2.4 exp }
                     ifelse
                 } bind dup dup
               ]
             /MatrixLMN [0.412457 0.212673 0.019334
                         0.357576 0.715152 0.119192
                         0.180437 0.072175 0.950301]
             /WhitePoint [0.9505 1.0 1.0890]
           >>
         ] setcolorspace } bind def
/srgb { setcolor } bind def
%%IncludeResource: font Helvetica
/Helvetica findfont
dup length dict begin
  {1 index /FID ne {def} {pop pop} ifelse} forall
  /Encoding ISOLatin1Encoding def
  currentdict
  end
/Font1 exch definefont pop
%%IncludeResource: font Helvetica-Bold
/Helvetica-Bold findfont
dup length dict begin
  {1 index /FID ne {def} {pop pop} ifelse} forall
  /Encoding ISOLatin1Encoding def
  currentdict
  end
/Font2 exch definefont pop
%%IncludeResource: font Helvetica-Oblique
/Helvetica-Oblique findfont
dup length dict begin
  {1 index /FID ne {def} {pop pop} ifelse} forall
  /Encoding ISOLatin1Encoding def
  currentdict
  end
/Font3 exch definefont pop
%%IncludeResource: font Helvetica-BoldOblique
/Helvetica-BoldOblique findfont
dup length dict begin
  {1 index /FID ne {def} {pop pop} ifelse} forall
  /Encoding ISOLatin1Encoding def
  currentdict
  end
/Font4 exch definefont pop
%%IncludeResource: font Symbol
/Symbol findfont
dup length dict begin
  {1 index /FID ne {def} {pop pop} ifelse} forall
  currentdict
  end
/Font5 exch definefont pop
%%EndProlog
%%Page: 1 1
bp
59.04 73.44 473.76 444.96 cl
0 0 0 srgb
0.75 setlinewidth
[] 0 setdash
1 setlinecap
1 setlinejoin
10.00 setmiterlimit
np
74.40 89.27 m
64.00 15.63 l
64.00 6.78 l
64.00 98.36 l
64.00 31.08 l
64.00 18.26 l
64.00 -140.96 l
o
0.00 0.00 504.00 504.00 cl
0 0 0 srgb
0.75 setlinewidth
[] 0 setdash
1 setlinecap
1 setlinejoin
10.00 setmiterlimit
np
74.40 73.44 m
384.00 0 l
o
np
74.40 73.44 m
0 -7.20 l
o
np
138.40 73.44 m
0 -7.20 l
o
np
202.40 73.44 m
0 -7.20 l
o
np
266.40 73.44 m
0 -7.20 l
o
np
330.40 73.44 m
0 -7.20 l
o
np
394.40 73.44 m
0 -7.20 l
o
np
458.40 73.44 m
0 -7.20 l
o
/Font1 findfont 12 s
74.40 47.52 (1) .5 0 t
138.40 47.52 (2) .5 0 t
202.40 47.52 (3) .5 0 t
266.40 47.52 (4) .5 0 t
330.40 47.52 (5) .5 0 t
394.40 47.52 (6) .5 0 t
458.40 47.52 (7) .5 0 t
np
59.04 86.83 m
0 314.50 l
o
np
59.04 86.83 m
-7.20 0 l
o
np
59.04 149.73 m
-7.20 0 l
o
np
59.04 212.63 m
-7.20 0 l
o
np
59.04 275.53 m
-7.20 0 l
o
np
59.04 338.43 m
-7.20 0 l
o
np
59.04 401.33 m
-7.20 0 l
o
41.76 86.83 (0) .5 90 t
41.76 149.73 (100) .5 90 t
41.76 212.63 (200) .5 90 t
41.76 275.53 (300) .5 90 t
41.76 338.43 (400) .5 90 t
41.76 401.33 (500) .5 90 t
np
59.04 73.44 m
414.72 0 l
0 371.52 l
-414.72 0 l
0 -371.52 l
o
0.00 0.00 504.00 504.00 cl
/Font1 findfont 12 s
0 0 0 srgb
255.73 18.72 (Da) 0 ta
-0.360 (y) tb gr
12.96 259.20 (Number of Requests \(in thousands\)) .5 90 t
59.04 73.44 473.76 444.96 cl
1 0 0 srgb
0.75 setlinewidth
[ 2.25 3.75] 0 setdash
1 setlinecap
1 setlinejoin
10.00 setmiterlimit
np
74.40 139.92 m
64.00 4.87 l
64.00 -6.18 l
64.00 46.57 l
64.00 -33.97 l
64.00 -37.65 l
64.00 -9.30 l
o
0 0.8039 0 srgb
0.75 setlinewidth
[ 0.00 3.00] 0 setdash
np
74.40 136.97 m
64.00 17.36 l
64.00 8.11 l
64.00 1.21 l
64.00 13.27 l
64.00 -19.97 l
64.00 18.59 l
o
0 0 1 srgb
0.75 setlinewidth
[ 0.00 3.00 2.25 3.00] 0 setdash
np
74.40 152.54 m
64.00 214.21 l
64.00 -142.53 l
64.00 93.92 l
64.00 36.98 l
64.00 49.51 l
64.00 26.57 l
o
0 1 1 srgb
0.75 setlinewidth
[ 4.50 3.00] 0 setdash
np
74.40 174.67 m
64.00 -30.50 l
64.00 60.21 l
64.00 -14.80 l
64.00 -28.06 l
64.00 -36.77 l
64.00 42.09 l
o
1 0 1 srgb
0.75 setlinewidth
[] 0 setdash
np
74.40 96.04 m
64.00 34.50 l
64.00 22.92 l
64.00 -11.07 l
64.00 13.40 l
64.00 14.13 l
64.00 -65.13 l
o
1 1 0 srgb
0.75 setlinewidth
[ 2.25 3.75] 0 setdash
np
74.40 167.15 m
64.00 1.81 l
64.00 -49.48 l
64.00 0.10 l
64.00 -5.35 l
64.00 -3.58 l
64.00 -10.69 l
o
0.7451 0.7451 0.7451 srgb
0.75 setlinewidth
[ 0.00 3.00] 0 setdash
np
74.40 148.71 m
64.00 112.44 l
64.00 18.70 l
64.00 -24.00 l
64.00 -9.40 l
64.00 21.94 l
64.00 3.14 l
o
0 0 0 srgb
0.75 setlinewidth
[ 0.00 3.00 2.25 3.00] 0 setdash
np
74.40 98.65 m
64.00 8.54 l
64.00 5.08 l
64.00 17.24 l
64.00 -14.60 l
64.00 2.66 l
64.00 -25.18 l
o
1 0 0 srgb
0.75 setlinewidth
[ 4.50 3.00] 0 setdash
np
74.40 110.94 m
64.00 79.23 l
64.00 -4.91 l
64.00 -77.54 l
64.00 20.45 l
64.00 -16.06 l
64.00 -24.67 l
o
0 0.8039 0 srgb
0.75 setlinewidth
[] 0 setdash
np
74.40 88.81 m
64.00 110.68 l
64.00 -74.47 l
64.00 -7.59 l
64.00 16.16 l
64.00 66.59 l
64.00 31.58 l
o
0 0 1 srgb
0.75 setlinewidth
[ 2.25 3.75] 0 setdash
np
74.40 189.68 m
64.00 -10.23 l
64.00 -20.07 l
64.00 -69.32 l
64.00 18.45 l
64.00 58.34 l
64.00 26.40 l
o
0 1 1 srgb
0.75 setlinewidth
[ 0.00 3.00] 0 setdash
np
74.40 125.44 m
64.00 -3.40 l
64.00 -5.98 l
64.00 -19.46 l
64.00 15.87 l
64.00 15.40 l
64.00 5.77 l
o
1 0 1 srgb
0.75 setlinewidth
[ 0.00 3.00 2.25 3.00] 0 setdash
np
74.40 116.02 m
64.00 -4.90 l
64.00 -14.06 l
64.00 108.15 l
64.00 -97.34 l
64.00 29.49 l
64.00 -1.32 l
o
1 1 0 srgb
0.75 setlinewidth
[ 4.50 3.00] 0 setdash
np
74.40 180.26 m
64.00 -47.50 l
64.00 26.29 l
64.00 16.87 l
64.00 30.65 l
64.00 -85.32 l
64.00 56.60 l
o
0.7451 0.7451 0.7451 srgb
0.75 setlinewidth
[] 0 setdash
np
74.40 138.01 m
64.00 -24.52 l
64.00 100.21 l
64.00 -54.03 l
64.00 -24.00 l
64.00 83.80 l
64.00 -72.64 l
o
0 0 0 srgb
0.75 setlinewidth
[ 2.25 3.75] 0 setdash
np
74.40 170.03 m
64.00 -46.83 l
64.00 14.77 l
64.00 0.18 l
64.00 5.87 l
64.00 -31.51 l
64.00 15.37 l
o
1 0 0 srgb
0.75 setlinewidth
[ 0.00 3.00] 0 setdash
np
74.40 138.01 m
64.00 -24.52 l
64.00 100.21 l
64.00 -54.03 l
64.00 -24.00 l
64.00 83.80 l
64.00 -72.64 l
o
0 0.8039 0 srgb
0.75 setlinewidth
[ 0.00 3.00 2.25 3.00] 0 setdash
np
74.40 182.18 m
64.00 5.01 l
64.00 47.99 l
64.00 44.38 l
64.00 -98.09 l
64.00 56.57 l
64.00 -53.33 l
o
0 0 1 srgb
0.75 setlinewidth
[ 4.50 3.00] 0 setdash
np
74.40 103.73 m
64.00 102.52 l
64.00 -7.54 l
64.00 -58.72 l
64.00 31.55 l
64.00 -13.68 l
64.00 178.49 l
o
0 1 1 srgb
0.75 setlinewidth
[] 0 setdash
np
74.40 123.51 m
64.00 -36.31 l
64.00 47.30 l
64.00 17.45 l
64.00 53.13 l
64.00 35.53 l
64.00 -95.41 l
o
1 0 1 srgb
0.75 setlinewidth
[ 2.25 3.75] 0 setdash
np
74.40 98.57 m
64.00 -11.34 l
64.00 75.35 l
64.00 26.83 l
64.00 -29.38 l
64.00 56.07 l
64.00 -37.92 l
o
1 1 0 srgb
0.75 setlinewidth
[ 0.00 3.00] 0 setdash
np
74.40 117.29 m
64.00 39.05 l
64.00 0.63 l
64.00 16.93 l
64.00 1.96 l
64.00 11.20 l
64.00 -91.66 l
o
0.7451 0.7451 0.7451 srgb
0.75 setlinewidth
[ 0.00 3.00 2.25 3.00] 0 setdash
np
74.40 117.12 m
64.00 -18.08 l
64.00 2.89 l
64.00 -12.17 l
64.00 1.48 l
64.00 8.24 l
64.00 30.20 l
o
0 0 0 srgb
0.75 setlinewidth
[ 4.50 3.00] 0 setdash
np
74.40 93.56 m
64.00 -5.75 l
64.00 22.08 l
64.00 25.15 l
64.00 -41.58 l
64.00 -6.21 l
64.00 10.48 l
o
1 0 0 srgb
0.75 setlinewidth
[] 0 setdash
np
74.40 91.87 m
64.00 18.25 l
64.00 -13.44 l
64.00 44.56 l
64.00 -42.29 l
64.00 -2.00 l
64.00 15.36 l
o
0 0.8039 0 srgb
0.75 setlinewidth
[ 2.25 3.75] 0 setdash
np
74.40 156.52 m
64.00 16.60 l
64.00 1.57 l
64.00 -27.85 l
64.00 78.02 l
64.00 -79.84 l
64.00 100.95 l
o
0 0 1 srgb
0.75 setlinewidth
[ 0.00 3.00] 0 setdash
np
74.40 97.58 m
64.00 168.31 l
64.00 -120.70 l
64.00 -4.25 l
64.00 -32.57 l
64.00 57.21 l
64.00 5.48 l
o
0 1 1 srgb
0.75 setlinewidth
[ 0.00 3.00 2.25 3.00] 0 setdash
np
74.40 96.73 m
64.00 3.16 l
64.00 2.09 l
64.00 13.99 l
64.00 -15.25 l
64.00 2.32 l
64.00 -9.85 l
o
1 0 1 srgb
0.75 setlinewidth
[ 4.50 3.00] 0 setdash
np
74.40 95.47 m
64.00 20.76 l
64.00 23.48 l
64.00 -15.01 l
64.00 51.47 l
64.00 4.52 l
64.00 -65.46 l
o
1 1 0 srgb
0.75 setlinewidth
[] 0 setdash
np
74.40 132.75 m
64.00 4.18 l
64.00 20.93 l
64.00 -4.25 l
64.00 -8.59 l
64.00 -31.18 l
64.00 21.24 l
o
0.7451 0.7451 0.7451 srgb
0.75 setlinewidth
[ 2.25 3.75] 0 setdash
np
74.40 179.55 m
64.00 42.07 l
64.00 -67.82 l
64.00 -38.39 l
64.00 -1.86 l
64.00 13.50 l
64.00 -6.57 l
o
0 0 0 srgb
0.75 setlinewidth
[ 0.00 3.00] 0 setdash
np
74.40 135.85 m
64.00 -43.49 l
64.00 0.80 l
64.00 3.77 l
64.00 -0.99 l
64.00 0.08 l
64.00 -6.69 l
o
1 0 0 srgb
0.75 setlinewidth
[ 0.00 3.00 2.25 3.00] 0 setdash
np
74.40 96.51 m
64.00 190.77 l
64.00 -3.74 l
64.00 -71.15 l
64.00 -18.40 l
64.00 42.08 l
64.00 -32.39 l
o
0 0.8039 0 srgb
0.75 setlinewidth
[ 4.50 3.00] 0 setdash
np
74.40 146.26 m
64.00 -28.25 l
64.00 45.96 l
64.00 -26.36 l
64.00 -24.43 l
64.00 46.98 l
64.00 -44.50 l
o
0 0 1 srgb
0.75 setlinewidth
[] 0 setdash
np
74.40 90.82 m
64.00 35.33 l
64.00 87.72 l
64.00 -23.94 l
64.00 -29.20 l
64.00 -37.91 l
64.00 9.20 l
o
ep
%%Trailer
%%Pages: 1
%%EOF
