%!PS-Adobe-3.0 EPSF-3.0
%%DocumentNeededResources: font Helvetica
%%+ font Helvetica-Bold
%%+ font Helvetica-Oblique
%%+ font Helvetica-BoldOblique
%%+ font Symbol
%%Title: R Graphics Output
%%Creator: R Software
%%Pages: (atend)
%%BoundingBox: 0 0 504 504
%%EndComments
%%BeginProlog
/bp  { gs sRGB gs } def
% begin .ps.prolog
/gs  { gsave } bind def
/gr  { grestore } bind def
/ep  { showpage gr gr } bind def
/m   { moveto } bind def
/l  { rlineto } bind def
/np  { newpath } bind def
/cp  { closepath } bind def
/f   { fill } bind def
/o   { stroke } bind def
/c   { newpath 0 360 arc } bind def
/r   { 4 2 roll moveto 1 copy 3 -1 roll exch 0 exch rlineto 0 rlineto -1 mul 0 exch rlineto closepath } bind def
/p1  { stroke } bind def
/p2  { gsave bg fill grestore newpath } bind def
/p3  { gsave bg fill grestore stroke } bind def
/p6  { gsave bg eofill grestore newpath } bind def
/p7  { gsave bg eofill grestore stroke } bind def
/t   { 5 -2 roll moveto gsave rotate
       1 index stringwidth pop
       mul neg 0 rmoveto show grestore } bind def
/ta  { 4 -2 roll moveto gsave rotate show } bind def
/tb  { 2 -1 roll 0 rmoveto show } bind def
/cl  { grestore gsave newpath 3 index 3 index moveto 1 index
       4 -1 roll lineto  exch 1 index lineto lineto
       closepath clip newpath } bind def
/rgb { setrgbcolor } bind def
/s   { scalefont setfont } bind def
% end   .ps.prolog
/sRGB { [ /CIEBasedABC
          << /DecodeLMN
               [ { dup 0.03928 le
                        {12.92321 div}
                        {0.055 add 1.055 div 2.4 exp }
                     ifelse
                 } bind dup dup
               ]
             /MatrixLMN [0.412457 0.212673 0.019334
                         0.357576 0.715152 0.119192
                         0.180437 0.072175 0.950301]
             /WhitePoint [0.9505 1.0 1.0890]
           >>
         ] setcolorspace } bind def
/srgb { setcolor } bind def
%%IncludeResource: font Helvetica
/Helvetica findfont
dup length dict begin
  {1 index /FID ne {def} {pop pop} ifelse} forall
  /Encoding ISOLatin1Encoding def
  currentdict
  end
/Font1 exch definefont pop
%%IncludeResource: font Helvetica-Bold
/Helvetica-Bold findfont
dup length dict begin
  {1 index /FID ne {def} {pop pop} ifelse} forall
  /Encoding ISOLatin1Encoding def
  currentdict
  end
/Font2 exch definefont pop
%%IncludeResource: font Helvetica-Oblique
/Helvetica-Oblique findfont
dup length dict begin
  {1 index /FID ne {def} {pop pop} ifelse} forall
  /Encoding ISOLatin1Encoding def
  currentdict
  end
/Font3 exch definefont pop
%%IncludeResource: font Helvetica-BoldOblique
/Helvetica-BoldOblique findfont
dup length dict begin
  {1 index /FID ne {def} {pop pop} ifelse} forall
  /Encoding ISOLatin1Encoding def
  currentdict
  end
/Font4 exch definefont pop
%%IncludeResource: font Symbol
/Symbol findfont
dup length dict begin
  {1 index /FID ne {def} {pop pop} ifelse} forall
  currentdict
  end
/Font5 exch definefont pop
%%EndProlog
%%Page: 1 1
bp
0.00 0.00 504.00 504.00 cl
/bg { 0.7451 0.7451 0.7451 srgb } def
0 0 0 srgb
0.75 setlinewidth
[] 0 setdash
1 setlinecap
1 setlinejoin
10.00 setmiterlimit
74.40 73.44 32.54 321.98 r p3
113.45 73.44 32.54 74.30 r p3
152.50 73.44 32.54 99.07 r p3
191.55 73.44 32.54 49.54 r p3
230.60 73.44 32.54 24.77 r p3
269.65 73.44 32.54 24.77 r p3
308.71 73.44 32.54 0.00 r p3
347.76 73.44 32.54 24.77 r p3
386.81 73.44 32.54 0.00 r p3
425.86 73.44 32.54 272.45 r p3
0.00 0.00 504.00 504.00 cl
/Font1 findfont 8 s
0 0 0 srgb
93.54 59.04 (0%-10%) 1 90 t
132.59 59.04 (10%-20%) 1 90 t
171.64 59.04 (20%-30%) 1 90 t
210.70 59.04 (30%-40%) 1 90 t
249.75 59.04 (40%-50%) 1 90 t
288.80 59.04 (50%-60%) 1 90 t
327.85 59.04 (60%-70%) 1 90 t
366.90 59.04 (70%-80%) 1 90 t
405.95 59.04 (80%-90%) 1 90 t
445.00 59.04 (90%-100%) 1 90 t
0.75 setlinewidth
[] 0 setdash
1 setlinecap
1 setlinejoin
10.00 setmiterlimit
np
59.04 73.44 m
0 346.75 l
o
np
59.04 73.44 m
-7.20 0 l
o
np
59.04 122.98 m
-7.20 0 l
o
np
59.04 172.51 m
-7.20 0 l
o
np
59.04 222.05 m
-7.20 0 l
o
np
59.04 271.58 m
-7.20 0 l
o
np
59.04 321.12 m
-7.20 0 l
o
np
59.04 370.66 m
-7.20 0 l
o
np
59.04 420.19 m
-7.20 0 l
o
44.64 70.57 (0) 1 0 t
44.64 120.10 (2) 1 0 t
44.64 169.64 (4) 1 0 t
44.64 219.18 (6) 1 0 t
44.64 268.71 (8) 1 0 t
44.64 318.25 (10) 1 0 t
44.64 367.78 (12) 1 0 t
44.64 417.32 (14) 1 0 t
59.04 73.44 473.76 444.96 cl
/Font1 findfont 10 s
0 0 0 srgb
90.67 402.62 (13) .5 0 t
129.72 154.94 (3) .5 0 t
168.77 179.71 (4) .5 0 t
207.82 130.18 (2) .5 0 t
246.87 105.41 (1) .5 0 t
285.93 105.41 (1) .5 0 t
324.98 80.64 (0) .5 0 t
364.03 105.41 (1) .5 0 t
403.08 80.64 (0) .5 0 t
442.13 353.09 (11) .5 0 t
0.00 0.00 504.00 504.00 cl
/Font1 findfont 12 s
0 0 0 srgb
27.36 259.20 (Number of Users) .5 90 t
122.67 4.32 (P) 0 ta
-0.600 (ercentage of Sensitiv) tb
-0.300 (e Requests Mar) tb
0.180 (k) tb
-0.240 (ed as In) tb
-0.240 (v) tb
-0.300 (asiv) tb
-0.300 (e) tb gr
ep
%%Trailer
%%Pages: 1
%%EOF
