%!PS-Adobe-3.0 EPSF-3.0
%%DocumentNeededResources: font Helvetica
%%+ font Helvetica-Bold
%%+ font Helvetica-Oblique
%%+ font Helvetica-BoldOblique
%%+ font Symbol
%%Title: R Graphics Output
%%Creator: R Software
%%Pages: (atend)
%%BoundingBox: 0 0 504 504
%%EndComments
%%BeginProlog
/bp  { gs sRGB gs } def
% begin .ps.prolog
/gs  { gsave } bind def
/gr  { grestore } bind def
/ep  { showpage gr gr } bind def
/m   { moveto } bind def
/l  { rlineto } bind def
/np  { newpath } bind def
/cp  { closepath } bind def
/f   { fill } bind def
/o   { stroke } bind def
/c   { newpath 0 360 arc } bind def
/r   { 4 2 roll moveto 1 copy 3 -1 roll exch 0 exch rlineto 0 rlineto -1 mul 0 exch rlineto closepath } bind def
/p1  { stroke } bind def
/p2  { gsave bg fill grestore newpath } bind def
/p3  { gsave bg fill grestore stroke } bind def
/p6  { gsave bg eofill grestore newpath } bind def
/p7  { gsave bg eofill grestore stroke } bind def
/t   { 5 -2 roll moveto gsave rotate
       1 index stringwidth pop
       mul neg 0 rmoveto show grestore } bind def
/ta  { 4 -2 roll moveto gsave rotate show } bind def
/tb  { 2 -1 roll 0 rmoveto show } bind def
/cl  { grestore gsave newpath 3 index 3 index moveto 1 index
       4 -1 roll lineto  exch 1 index lineto lineto
       closepath clip newpath } bind def
/rgb { setrgbcolor } bind def
/s   { scalefont setfont } bind def
% end   .ps.prolog
/sRGB { [ /CIEBasedABC
          << /DecodeLMN
               [ { dup 0.03928 le
                        {12.92321 div}
                        {0.055 add 1.055 div 2.4 exp }
                     ifelse
                 } bind dup dup
               ]
             /MatrixLMN [0.412457 0.212673 0.019334
                         0.357576 0.715152 0.119192
                         0.180437 0.072175 0.950301]
             /WhitePoint [0.9505 1.0 1.0890]
           >>
         ] setcolorspace } bind def
/srgb { setcolor } bind def
%%IncludeResource: font Helvetica
/Helvetica findfont
dup length dict begin
  {1 index /FID ne {def} {pop pop} ifelse} forall
  /Encoding ISOLatin1Encoding def
  currentdict
  end
/Font1 exch definefont pop
%%IncludeResource: font Helvetica-Bold
/Helvetica-Bold findfont
dup length dict begin
  {1 index /FID ne {def} {pop pop} ifelse} forall
  /Encoding ISOLatin1Encoding def
  currentdict
  end
/Font2 exch definefont pop
%%IncludeResource: font Helvetica-Oblique
/Helvetica-Oblique findfont
dup length dict begin
  {1 index /FID ne {def} {pop pop} ifelse} forall
  /Encoding ISOLatin1Encoding def
  currentdict
  end
/Font3 exch definefont pop
%%IncludeResource: font Helvetica-BoldOblique
/Helvetica-BoldOblique findfont
dup length dict begin
  {1 index /FID ne {def} {pop pop} ifelse} forall
  /Encoding ISOLatin1Encoding def
  currentdict
  end
/Font4 exch definefont pop
%%IncludeResource: font Symbol
/Symbol findfont
dup length dict begin
  {1 index /FID ne {def} {pop pop} ifelse} forall
  currentdict
  end
/Font5 exch definefont pop
%%EndProlog
%%Page: 1 1
bp
0.00 0.00 504.00 504.00 cl
/bg { 0.7451 0.7451 0.7451 srgb } def
0 0 0 srgb
0.75 setlinewidth
[] 0 setdash
1 setlinecap
1 setlinejoin
10.00 setmiterlimit
74.40 73.44 32.54 337.58 r p3
113.45 73.44 32.54 294.87 r p3
152.50 73.44 32.54 204.41 r p3
191.55 73.44 32.54 99.03 r p3
230.60 73.44 32.54 50.93 r p3
269.65 73.44 32.54 41.54 r p3
308.71 73.44 32.54 32.76 r p3
347.76 73.44 32.54 24.70 r p3
386.81 73.44 32.54 23.84 r p3
425.86 73.44 32.54 20.80 r p3
/Font1 findfont 12 s
12.96 182.50 (Number of Requests per da) 90 ta
-0.360 (y) tb gr
0.00 0.00 504.00 504.00 cl
0 0 0 srgb
0.75 setlinewidth
[] 0 setdash
1 setlinecap
1 setlinejoin
10.00 setmiterlimit
np
59.04 73.44 m
0 371.52 l
o
np
59.04 73.44 m
-7.20 0 l
o
np
59.04 166.32 m
-7.20 0 l
o
np
59.04 259.20 m
-7.20 0 l
o
np
59.04 352.08 m
-7.20 0 l
o
np
59.04 444.96 m
-7.20 0 l
o
/Font1 findfont 8 s
44.64 70.57 (0) 1 0 t
44.64 163.45 (10000) 1 0 t
44.64 256.33 (20000) 1 0 t
44.64 349.21 (30000) 1 0 t
44.64 442.09 (40000) 1 0 t
0.00 0.00 504.00 504.00 cl
/Font1 findfont 6 s
0 0 0 srgb
92.72 418.22 (36346) .5 90 t
131.77 375.51 (31747) .5 90 t
170.82 285.05 (22008) .5 90 t
209.88 179.67 (10662) .5 90 t
248.93 131.57 (5483) .5 90 t
288.03 122.18 (4472) .5 90 t
327.03 113.40 (3527) .5 90 t
366.08 105.34 (2659) .5 90 t
405.13 104.48 (2567) .5 90 t
444.18 101.44 (2239) .5 90 t
59.04 73.44 473.76 444.96 cl
/Font1 findfont 10 s
0 0 0 srgb
225.06 429.85 (F) 0 ta
-0.500 (acebook App) tb gr
225.06 418.33 (Google Location) 0 0 t
225.06 406.81 (F) 0 ta
-0.500 (acebook Messenger) tb gr
225.06 395.29 (T) 0 ta
-1.200 (aptu DJ) tb gr
225.06 383.77 (Google Maps) 0 0 t
225.06 372.25 (Google \( Gapps \)) 0 0 t
225.06 360.73 (F) 0 ta
-0.300 (our) tb
-0.100 (aquare) tb gr
225.06 349.21 (Y) 0 ta
-1.400 (ahoo W) tb
-0.300 (eather) tb gr
225.06 337.69 (De) 0 ta
-0.300 (v) tb
-0.250 (e) tb
-0.300 (xper) tb
0.400 (t W) tb
-0.300 (eather) tb gr
225.06 326.17 (Tile Game\(Umoni\)) 0 0 t
ep
%%Trailer
%%Pages: 1
%%EOF
