%!PS-Adobe-3.0 EPSF-3.0
%%DocumentNeededResources: font Helvetica
%%+ font Helvetica-Bold
%%+ font Helvetica-Oblique
%%+ font Helvetica-BoldOblique
%%+ font Symbol
%%Title: R Graphics Output
%%Creator: R Software
%%Pages: (atend)
%%BoundingBox: 0 0 504 504
%%EndComments
%%BeginProlog
/bp  { gs sRGB gs } def
% begin .ps.prolog
/gs  { gsave } bind def
/gr  { grestore } bind def
/ep  { showpage gr gr } bind def
/m   { moveto } bind def
/l  { rlineto } bind def
/np  { newpath } bind def
/cp  { closepath } bind def
/f   { fill } bind def
/o   { stroke } bind def
/c   { newpath 0 360 arc } bind def
/r   { 4 2 roll moveto 1 copy 3 -1 roll exch 0 exch rlineto 0 rlineto -1 mul 0 exch rlineto closepath } bind def
/p1  { stroke } bind def
/p2  { gsave bg fill grestore newpath } bind def
/p3  { gsave bg fill grestore stroke } bind def
/p6  { gsave bg eofill grestore newpath } bind def
/p7  { gsave bg eofill grestore stroke } bind def
/t   { 5 -2 roll moveto gsave rotate
       1 index stringwidth pop
       mul neg 0 rmoveto show grestore } bind def
/ta  { 4 -2 roll moveto gsave rotate show } bind def
/tb  { 2 -1 roll 0 rmoveto show } bind def
/cl  { grestore gsave newpath 3 index 3 index moveto 1 index
       4 -1 roll lineto  exch 1 index lineto lineto
       closepath clip newpath } bind def
/rgb { setrgbcolor } bind def
/s   { scalefont setfont } bind def
% end   .ps.prolog
/sRGB { [ /CIEBasedABC
          << /DecodeLMN
               [ { dup 0.03928 le
                        {12.92321 div}
                        {0.055 add 1.055 div 2.4 exp }
                     ifelse
                 } bind dup dup
               ]
             /MatrixLMN [0.412457 0.212673 0.019334
                         0.357576 0.715152 0.119192
                         0.180437 0.072175 0.950301]
             /WhitePoint [0.9505 1.0 1.0890]
           >>
         ] setcolorspace } bind def
/srgb { setcolor } bind def
%%IncludeResource: font Helvetica
/Helvetica findfont
dup length dict begin
  {1 index /FID ne {def} {pop pop} ifelse} forall
  /Encoding ISOLatin1Encoding def
  currentdict
  end
/Font1 exch definefont pop
%%IncludeResource: font Helvetica-Bold
/Helvetica-Bold findfont
dup length dict begin
  {1 index /FID ne {def} {pop pop} ifelse} forall
  /Encoding ISOLatin1Encoding def
  currentdict
  end
/Font2 exch definefont pop
%%IncludeResource: font Helvetica-Oblique
/Helvetica-Oblique findfont
dup length dict begin
  {1 index /FID ne {def} {pop pop} ifelse} forall
  /Encoding ISOLatin1Encoding def
  currentdict
  end
/Font3 exch definefont pop
%%IncludeResource: font Helvetica-BoldOblique
/Helvetica-BoldOblique findfont
dup length dict begin
  {1 index /FID ne {def} {pop pop} ifelse} forall
  /Encoding ISOLatin1Encoding def
  currentdict
  end
/Font4 exch definefont pop
%%IncludeResource: font Symbol
/Symbol findfont
dup length dict begin
  {1 index /FID ne {def} {pop pop} ifelse} forall
  currentdict
  end
/Font5 exch definefont pop
%%EndProlog
%%Page: 1 1
bp
0.00 0.00 504.00 504.00 cl
/bg { 0.7451 0.7451 0.7451 srgb } def
0 0 0 srgb
0.75 setlinewidth
[] 0 setdash
1 setlinecap
1 setlinejoin
10.00 setmiterlimit
74.40 73.44 32.54 331.25 r p3
113.45 73.44 32.54 252.80 r p3
152.50 73.44 32.54 66.46 r p3
191.55 73.44 32.54 36.21 r p3
230.60 73.44 32.54 19.38 r p3
269.65 73.44 32.54 15.14 r p3
308.71 73.44 32.54 14.62 r p3
347.76 73.44 32.54 6.84 r p3
386.81 73.44 32.54 4.52 r p3
425.86 73.44 32.54 4.42 r p3
/Font1 findfont 12 s
221.72 18.72 (P) 0 ta
-0.600 (er) tb
0.300 (mission T) tb
-1.440 (ype) tb gr
12.96 182.50 (Number of Requests per da) 90 ta
-0.360 (y) tb gr
0.00 0.00 504.00 504.00 cl
0 0 0 srgb
0.75 setlinewidth
[] 0 setdash
1 setlinecap
1 setlinejoin
10.00 setmiterlimit
np
59.04 73.44 m
0 371.52 l
o
np
59.04 73.44 m
-7.20 0 l
o
np
59.04 126.51 m
-7.20 0 l
o
np
59.04 179.59 m
-7.20 0 l
o
np
59.04 232.66 m
-7.20 0 l
o
np
59.04 285.74 m
-7.20 0 l
o
np
59.04 338.81 m
-7.20 0 l
o
np
59.04 391.89 m
-7.20 0 l
o
np
59.04 444.96 m
-7.20 0 l
o
/Font1 findfont 8 s
44.64 70.57 (0) 1 0 t
44.64 123.64 (5000) 1 0 t
44.64 176.72 (10000) 1 0 t
44.64 229.79 (15000) 1 0 t
44.64 282.87 (20000) 1 0 t
44.64 335.94 (25000) 1 0 t
44.64 389.01 (30000) 1 0 t
44.64 442.09 (35000) 1 0 t
0.00 0.00 504.00 504.00 cl
/Font1 findfont 6 s
0 0 0 srgb
92.72 411.89 (31206) .5 90 t
131.77 333.44 (23816) .5 90 t
170.82 147.10 (6261) .5 90 t
209.88 116.85 (3411) .5 90 t
248.93 100.02 (1826) .5 90 t
287.98 95.78 (1426) .5 90 t
327.03 95.26 (1377) .5 90 t
366.08 87.48 (644) .5 90 t
405.13 85.16 (426) .5 90 t
444.18 85.06 (416) .5 90 t
59.04 73.44 473.76 444.96 cl
/Font1 findfont 10 s
0 0 0 srgb
157.19 429.85 (android.per) 0 ta
0.250 (mission.A) tb
-0.300 (CCESS_NETW) tb
-0.200 (ORK_ST) tb
-1.200 (A) tb
-1.200 (TE) tb gr
157.19 418.33 (android.per) 0 ta
0.250 (mission.W) tb
-0.500 (AKE_LOCK) tb gr
157.19 406.81 (android.per) 0 ta
0.250 (mission.A) tb
-0.300 (CCESS_FINE_LOCA) tb
-1.200 (TION) tb gr
157.19 395.29 (android.per) 0 ta
0.250 (mission.GET_A) tb
-0.300 (CCOUNTS) tb gr
157.19 383.77 (android.per) 0 ta
0.250 (mission.A) tb
-0.300 (CCESS_WIFI_ST) tb
-1.200 (A) tb
-1.200 (TE) tb gr
157.19 372.25 (android.per) 0 ta
0.250 (mission.UPD) tb
-0.400 (A) tb
-1.200 (TE_DEVICE_ST) tb
-1.200 (A) tb
-1.200 (TS) tb gr
157.19 360.73 (android.per) 0 ta
0.250 (mission.A) tb
-0.300 (CCESS_CO) tb
-0.200 (ARSE_LOCA) tb
-1.200 (TION) tb gr
157.19 349.21 (android.per) 0 ta
0.250 (mission.A) tb
-0.500 (UTHENTICA) tb
-1.200 (TE_A) tb
-0.300 (CCOUNTS) tb gr
157.19 337.69 (android.per) 0 ta
0.250 (mission.READ_SYNC_SETTINGS) tb gr
157.19 326.17 (android.per) 0 ta
0.250 (mission.INTERNET) tb gr
ep
%%Trailer
%%Pages: 1
%%EOF
