%!PS-Adobe-3.0 EPSF-3.0
%%DocumentNeededResources: font Helvetica
%%+ font Helvetica-Bold
%%+ font Helvetica-Oblique
%%+ font Helvetica-BoldOblique
%%+ font Symbol
%%Title: R Graphics Output
%%Creator: R Software
%%Pages: (atend)
%%BoundingBox: 0 0 504 504
%%EndComments
%%BeginProlog
/bp  { gs sRGB gs } def
% begin .ps.prolog
/gs  { gsave } bind def
/gr  { grestore } bind def
/ep  { showpage gr gr } bind def
/m   { moveto } bind def
/l  { rlineto } bind def
/np  { newpath } bind def
/cp  { closepath } bind def
/f   { fill } bind def
/o   { stroke } bind def
/c   { newpath 0 360 arc } bind def
/r   { 4 2 roll moveto 1 copy 3 -1 roll exch 0 exch rlineto 0 rlineto -1 mul 0 exch rlineto closepath } bind def
/p1  { stroke } bind def
/p2  { gsave bg fill grestore newpath } bind def
/p3  { gsave bg fill grestore stroke } bind def
/p6  { gsave bg eofill grestore newpath } bind def
/p7  { gsave bg eofill grestore stroke } bind def
/t   { 5 -2 roll moveto gsave rotate
       1 index stringwidth pop
       mul neg 0 rmoveto show grestore } bind def
/ta  { 4 -2 roll moveto gsave rotate show } bind def
/tb  { 2 -1 roll 0 rmoveto show } bind def
/cl  { grestore gsave newpath 3 index 3 index moveto 1 index
       4 -1 roll lineto  exch 1 index lineto lineto
       closepath clip newpath } bind def
/rgb { setrgbcolor } bind def
/s   { scalefont setfont } bind def
% end   .ps.prolog
/sRGB { [ /CIEBasedABC
          << /DecodeLMN
               [ { dup 0.03928 le
                        {12.92321 div}
                        {0.055 add 1.055 div 2.4 exp }
                     ifelse
                 } bind dup dup
               ]
             /MatrixLMN [0.412457 0.212673 0.019334
                         0.357576 0.715152 0.119192
                         0.180437 0.072175 0.950301]
             /WhitePoint [0.9505 1.0 1.0890]
           >>
         ] setcolorspace } bind def
/srgb { setcolor } bind def
%%IncludeResource: font Helvetica
/Helvetica findfont
dup length dict begin
  {1 index /FID ne {def} {pop pop} ifelse} forall
  /Encoding ISOLatin1Encoding def
  currentdict
  end
/Font1 exch definefont pop
%%IncludeResource: font Helvetica-Bold
/Helvetica-Bold findfont
dup length dict begin
  {1 index /FID ne {def} {pop pop} ifelse} forall
  /Encoding ISOLatin1Encoding def
  currentdict
  end
/Font2 exch definefont pop
%%IncludeResource: font Helvetica-Oblique
/Helvetica-Oblique findfont
dup length dict begin
  {1 index /FID ne {def} {pop pop} ifelse} forall
  /Encoding ISOLatin1Encoding def
  currentdict
  end
/Font3 exch definefont pop
%%IncludeResource: font Helvetica-BoldOblique
/Helvetica-BoldOblique findfont
dup length dict begin
  {1 index /FID ne {def} {pop pop} ifelse} forall
  /Encoding ISOLatin1Encoding def
  currentdict
  end
/Font4 exch definefont pop
%%IncludeResource: font Symbol
/Symbol findfont
dup length dict begin
  {1 index /FID ne {def} {pop pop} ifelse} forall
  currentdict
  end
/Font5 exch definefont pop
%%EndProlog
%%Page: 1 1
bp
59.04 73.44 473.76 444.96 cl
0 0 0 srgb
0.75 setlinewidth
[] 0 setdash
1 setlinecap
1 setlinejoin
10.00 setmiterlimit
np
74.40 294.76 m
16.70 47.04 l
16.69 -62.39 l
16.70 -44.64 l
16.69 -37.86 l
16.70 -15.38 l
16.69 30.52 l
16.70 23.18 l
16.70 120.00 l
16.69 75.97 l
16.70 -83.55 l
16.69 -100.60 l
16.70 81.25 l
16.69 80.49 l
16.70 -111.06 l
16.69 38.47 l
16.70 -57.28 l
16.70 85.57 l
16.69 -67.68 l
16.70 40.11 l
16.69 23.99 l
16.70 -88.21 l
16.69 78.39 l
16.70 -30.26 l
o
0.00 0.00 504.00 504.00 cl
0 0 0 srgb
0.75 setlinewidth
[] 0 setdash
1 setlinecap
1 setlinejoin
10.00 setmiterlimit
np
141.18 73.44 m
250.44 0 l
o
np
141.18 73.44 m
0 -7.20 l
o
np
224.66 73.44 m
0 -7.20 l
o
np
308.14 73.44 m
0 -7.20 l
o
np
391.62 73.44 m
0 -7.20 l
o
/Font1 findfont 12 s
141.18 47.52 (5) .5 0 t
224.66 47.52 (10) .5 0 t
308.14 47.52 (15) .5 0 t
391.62 47.52 (20) .5 0 t
np
59.04 87.11 m
0 317.73 l
o
np
59.04 87.11 m
-7.20 0 l
o
np
59.04 150.66 m
-7.20 0 l
o
np
59.04 214.20 m
-7.20 0 l
o
np
59.04 277.75 m
-7.20 0 l
o
np
59.04 341.30 m
-7.20 0 l
o
np
59.04 404.84 m
-7.20 0 l
o
41.76 87.11 (0) .5 90 t
41.76 150.66 (500) .5 90 t
41.76 214.20 (1000) .5 90 t
41.76 277.75 (1500) .5 90 t
41.76 341.30 (2000) .5 90 t
41.76 404.84 (2500) .5 90 t
np
59.04 73.44 m
414.72 0 l
0 371.52 l
-414.72 0 l
0 -371.52 l
o
0.00 0.00 504.00 504.00 cl
/Font1 findfont 12 s
0 0 0 srgb
12.96 242.53 (per) 90 ta
0.300 (ms) tb gr
59.04 73.44 473.76 444.96 cl
1 0 0 srgb
0.75 setlinewidth
[ 2.25 3.75] 0 setdash
1 setlinecap
1 setlinejoin
10.00 setmiterlimit
np
74.40 197.84 m
16.70 -8.77 l
16.69 -14.24 l
16.70 -11.09 l
16.69 -1.01 l
16.70 2.37 l
16.69 2.44 l
16.70 34.42 l
16.70 39.79 l
16.69 22.30 l
16.70 7.61 l
16.69 -19.86 l
16.70 29.31 l
16.69 2.52 l
16.70 -6.15 l
16.69 -12.39 l
16.70 -10.72 l
16.70 11.01 l
16.69 -22.41 l
16.70 -13.81 l
16.69 22.82 l
16.70 0.88 l
16.69 -4.97 l
16.70 -25.85 l
o
0 0.8039 0 srgb
0.75 setlinewidth
[ 0.00 3.00] 0 setdash
np
74.40 109.69 m
16.70 -1.65 l
16.69 -2.33 l
16.70 -0.55 l
16.69 -1.13 l
16.70 1.05 l
16.69 7.34 l
16.70 10.57 l
16.70 10.82 l
16.69 5.29 l
16.70 3.82 l
16.69 -13.09 l
16.70 6.42 l
16.69 0.63 l
16.70 3.23 l
16.69 5.47 l
16.70 -10.80 l
16.70 8.88 l
16.69 -9.72 l
16.70 -0.22 l
16.69 -0.67 l
16.70 -3.21 l
16.69 1.19 l
16.70 -17.47 l
o
0 0 1 srgb
0.75 setlinewidth
[ 0.00 3.00 2.25 3.00] 0 setdash
np
74.40 104.43 m
16.70 -1.34 l
16.69 -1.05 l
16.70 -2.48 l
16.69 -0.75 l
16.70 -0.02 l
16.69 -0.74 l
16.70 4.69 l
16.70 7.99 l
16.69 8.83 l
16.70 3.93 l
16.69 -4.05 l
16.70 -3.85 l
16.69 0.11 l
16.70 -1.06 l
16.69 0.37 l
16.70 -0.68 l
16.70 -4.30 l
16.69 0.10 l
16.70 5.56 l
16.69 1.01 l
16.70 -2.22 l
16.69 2.77 l
16.70 -10.06 l
o
0 1 1 srgb
0.75 setlinewidth
[ 4.50 3.00] 0 setdash
np
74.40 96.09 m
16.70 -1.74 l
16.69 -0.49 l
16.70 -0.02 l
16.69 -1.42 l
16.70 -0.10 l
16.69 2.31 l
16.70 5.59 l
16.70 4.12 l
16.69 3.37 l
16.70 0.29 l
16.69 -1.90 l
16.70 1.67 l
16.69 -0.84 l
16.70 1.12 l
16.69 2.57 l
16.70 -4.45 l
16.70 3.43 l
16.69 -4.63 l
16.70 1.24 l
16.69 0.92 l
16.70 -3.87 l
16.69 0.13 l
16.70 -5.57 l
o
1 0 1 srgb
0.75 setlinewidth
[] 0 setdash
np
74.40 95.60 m
16.70 0.40 l
16.69 -0.33 l
16.70 0.27 l
16.69 -0.39 l
16.70 -0.92 l
16.69 0.68 l
16.70 2.44 l
16.70 2.45 l
16.69 -1.16 l
16.70 -0.35 l
16.69 0.67 l
16.70 0.78 l
16.69 -0.86 l
16.70 2.24 l
16.69 -1.45 l
16.70 0.26 l
16.70 0.08 l
16.69 -1.58 l
16.70 1.54 l
16.69 -1.33 l
16.70 -1.20 l
16.69 0.73 l
16.70 -2.16 l
o
1 1 0 srgb
0.75 setlinewidth
[ 2.25 3.75] 0 setdash
np
74.40 93.60 m
16.70 0.10 l
16.69 -0.33 l
16.70 -0.22 l
16.69 -0.25 l
16.70 -0.07 l
16.69 0.96 l
16.70 0.63 l
16.70 1.15 l
16.69 0.84 l
16.70 0.15 l
16.69 0.23 l
16.70 0.24 l
16.69 -0.10 l
16.70 0.16 l
16.69 0.26 l
16.70 -0.38 l
16.70 -0.38 l
16.69 0.22 l
16.70 0.20 l
16.69 -0.19 l
16.70 -1.18 l
16.69 1.91 l
16.70 -3.11 l
o
0.7451 0.7451 0.7451 srgb
0.75 setlinewidth
[ 0.00 3.00] 0 setdash
np
74.40 90.16 m
16.70 -0.34 l
16.69 -0.55 l
16.70 -0.70 l
16.69 0.03 l
16.70 0.11 l
16.69 0.61 l
16.70 2.50 l
16.70 6.10 l
16.69 3.45 l
16.70 -1.96 l
16.69 -0.64 l
16.70 -2.45 l
16.69 0.73 l
16.70 0.23 l
16.69 -0.84 l
16.70 0.58 l
16.70 -2.47 l
16.69 -1.94 l
16.70 4.11 l
16.69 0.92 l
16.70 -2.43 l
16.69 -0.23 l
16.70 -4.16 l
o
0 0 0 srgb
0.75 setlinewidth
[ 0.00 3.00 2.25 3.00] 0 setdash
np
74.40 88.93 m
16.70 -0.68 l
16.69 0.19 l
16.70 -0.16 l
16.69 -0.43 l
16.70 0.19 l
16.69 0.82 l
16.70 2.41 l
16.70 3.68 l
16.69 -1.36 l
16.70 0.56 l
16.69 1.53 l
16.70 -2.71 l
16.69 1.20 l
16.70 -1.46 l
16.69 0.70 l
16.70 0.53 l
16.70 -0.32 l
16.69 -0.76 l
16.70 -0.29 l
16.69 -0.32 l
16.70 -1.83 l
16.69 0.10 l
16.70 -1.26 l
o
1 0 0 srgb
0.75 setlinewidth
[ 4.50 3.00] 0 setdash
np
74.40 90.49 m
16.70 -1.65 l
16.69 -1.48 l
16.70 -0.09 l
16.69 0.07 l
16.70 -0.14 l
16.69 1.57 l
16.70 0.95 l
16.70 1.24 l
16.69 2.65 l
16.70 1.16 l
16.69 -2.52 l
16.70 0.46 l
16.69 -1.09 l
16.70 0.56 l
16.69 1.02 l
16.70 -2.06 l
16.70 1.13 l
16.69 0.58 l
16.70 -0.35 l
16.69 -0.48 l
16.70 1.83 l
16.69 -2.98 l
16.70 0.10 l
o
0.00 0.00 504.00 504.00 cl
0 0 0 srgb
0.75 setlinewidth
[] 0 setdash
1 setlinecap
1 setlinejoin
10.00 setmiterlimit
59.04 444.96 115.57 -87.12 r p1
64.98 437.04 1.48 c p1
1 0 0 srgb
64.98 429.12 1.48 c p1
0 0.8039 0 srgb
64.98 421.20 1.48 c p1
0 0 1 srgb
64.98 413.28 1.48 c p1
0 1 1 srgb
64.98 405.36 1.48 c p1
1 0 1 srgb
64.98 397.44 1.48 c p1
1 1 0 srgb
64.98 389.52 1.48 c p1
0.7451 0.7451 0.7451 srgb
64.98 381.60 1.48 c p1
0 0 0 srgb
64.98 373.68 1.48 c p1
1 0 0 srgb
64.98 365.76 1.48 c p1
/Font1 findfont 7 s
0 0 0 srgb
70.92 434.53 (A) 0 ta
-0.210 (CCESS_NETW) tb
-0.140 (ORK_ST) tb
-0.840 (A) tb
-0.840 (TE) tb gr
70.92 426.61 (W) 0 ta
-0.350 (AKE_LOCK) tb gr
70.92 418.69 (A) 0 ta
-0.210 (CCESS_FINE_LOCA) tb
-0.840 (TION) tb gr
70.92 410.77 (GET_A) 0 ta
-0.210 (CCOUNTS) tb gr
70.92 402.85 (UPD) 0 ta
-0.280 (A) tb
-0.840 (TE_DEVICE_ST) tb
-0.840 (A) tb
-0.840 (TS) tb gr
70.92 394.93 (A) 0 ta
-0.210 (CCESS_WIFI_ST) tb
-0.840 (A) tb
-0.840 (TE) tb gr
70.92 387.01 (A) 0 ta
-0.210 (CCESS_CO) tb
-0.140 (ARSE_LOCA) tb
-0.840 (TION) tb gr
70.92 379.09 (A) 0 ta
-0.350 (UTHENTICA) tb
-0.840 (TE_A) tb
-0.210 (CCOUNTS) tb gr
70.92 371.17 (READ_SYNC_SETTINGS) 0 0 t
70.92 363.25 (VIBRA) 0 ta
-0.840 (TE) tb gr
ep
%%Trailer
%%Pages: 1
%%EOF
