%!PS-Adobe-3.0 EPSF-3.0
%%DocumentNeededResources: font Helvetica
%%+ font Helvetica-Bold
%%+ font Helvetica-Oblique
%%+ font Helvetica-BoldOblique
%%+ font Symbol
%%Title: R Graphics Output
%%Creator: R Software
%%Pages: (atend)
%%BoundingBox: 0 0 504 504
%%EndComments
%%BeginProlog
/bp  { gs sRGB gs } def
% begin .ps.prolog
/gs  { gsave } bind def
/gr  { grestore } bind def
/ep  { showpage gr gr } bind def
/m   { moveto } bind def
/l  { rlineto } bind def
/np  { newpath } bind def
/cp  { closepath } bind def
/f   { fill } bind def
/o   { stroke } bind def
/c   { newpath 0 360 arc } bind def
/r   { 4 2 roll moveto 1 copy 3 -1 roll exch 0 exch rlineto 0 rlineto -1 mul 0 exch rlineto closepath } bind def
/p1  { stroke } bind def
/p2  { gsave bg fill grestore newpath } bind def
/p3  { gsave bg fill grestore stroke } bind def
/p6  { gsave bg eofill grestore newpath } bind def
/p7  { gsave bg eofill grestore stroke } bind def
/t   { 5 -2 roll moveto gsave rotate
       1 index stringwidth pop
       mul neg 0 rmoveto show grestore } bind def
/ta  { 4 -2 roll moveto gsave rotate show } bind def
/tb  { 2 -1 roll 0 rmoveto show } bind def
/cl  { grestore gsave newpath 3 index 3 index moveto 1 index
       4 -1 roll lineto  exch 1 index lineto lineto
       closepath clip newpath } bind def
/rgb { setrgbcolor } bind def
/s   { scalefont setfont } bind def
% end   .ps.prolog
/sRGB { [ /CIEBasedABC
          << /DecodeLMN
               [ { dup 0.03928 le
                        {12.92321 div}
                        {0.055 add 1.055 div 2.4 exp }
                     ifelse
                 } bind dup dup
               ]
             /MatrixLMN [0.412457 0.212673 0.019334
                         0.357576 0.715152 0.119192
                         0.180437 0.072175 0.950301]
             /WhitePoint [0.9505 1.0 1.0890]
           >>
         ] setcolorspace } bind def
/srgb { setcolor } bind def
%%IncludeResource: font Helvetica
/Helvetica findfont
dup length dict begin
  {1 index /FID ne {def} {pop pop} ifelse} forall
  /Encoding ISOLatin1Encoding def
  currentdict
  end
/Font1 exch definefont pop
%%IncludeResource: font Helvetica-Bold
/Helvetica-Bold findfont
dup length dict begin
  {1 index /FID ne {def} {pop pop} ifelse} forall
  /Encoding ISOLatin1Encoding def
  currentdict
  end
/Font2 exch definefont pop
%%IncludeResource: font Helvetica-Oblique
/Helvetica-Oblique findfont
dup length dict begin
  {1 index /FID ne {def} {pop pop} ifelse} forall
  /Encoding ISOLatin1Encoding def
  currentdict
  end
/Font3 exch definefont pop
%%IncludeResource: font Helvetica-BoldOblique
/Helvetica-BoldOblique findfont
dup length dict begin
  {1 index /FID ne {def} {pop pop} ifelse} forall
  /Encoding ISOLatin1Encoding def
  currentdict
  end
/Font4 exch definefont pop
%%IncludeResource: font Symbol
/Symbol findfont
dup length dict begin
  {1 index /FID ne {def} {pop pop} ifelse} forall
  currentdict
  end
/Font5 exch definefont pop
%%EndProlog
%%Page: 1 1
bp
0.00 0.00 504.00 504.00 cl
0 0 0 srgb
0.75 setlinewidth
[] 0 setdash
1 setlinecap
1 setlinejoin
10.00 setmiterlimit
np
74.40 73.44 m
333.91 0 l
o
np
74.40 73.44 m
0 -7.20 l
o
np
157.88 73.44 m
0 -7.20 l
o
np
241.36 73.44 m
0 -7.20 l
o
np
324.83 73.44 m
0 -7.20 l
o
np
408.31 73.44 m
0 -7.20 l
o
/Font1 findfont 12 s
74.40 47.52 (0) .5 0 t
157.88 47.52 (5) .5 0 t
241.36 47.52 (10) .5 0 t
324.83 47.52 (15) .5 0 t
408.31 47.52 (20) .5 0 t
np
59.04 121.04 m
0 281.96 l
o
np
59.04 121.04 m
-7.20 0 l
o
np
59.04 177.43 m
-7.20 0 l
o
np
59.04 233.82 m
-7.20 0 l
o
np
59.04 290.22 m
-7.20 0 l
o
np
59.04 346.61 m
-7.20 0 l
o
np
59.04 403.00 m
-7.20 0 l
o
41.76 121.04 (60) .5 90 t
41.76 177.43 (70) .5 90 t
41.76 233.82 (80) .5 90 t
41.76 290.22 (90) .5 90 t
41.76 346.61 (100) .5 90 t
41.76 403.00 (110) .5 90 t
np
59.04 73.44 m
414.72 0 l
0 371.52 l
-414.72 0 l
0 -371.52 l
o
0.00 0.00 504.00 504.00 cl
/Font1 findfont 12 s
0 0 0 srgb
225.38 18.72 (Hour of the da) 0 ta
-0.360 (y) tb gr
12.96 134.16 (Number of Pr) 90 ta
0.180 (iv) tb
-0.300 (acy Sensitiv) tb
-0.300 (e Requests per Da) tb
-0.360 (y) tb gr
59.04 73.44 473.76 444.96 cl
0 0 0 srgb
0.75 setlinewidth
[] 0 setdash
1 setlinecap
1 setlinejoin
10.00 setmiterlimit
np
74.40 177.43 m
16.70 -33.84 l
16.69 -28.19 l
16.70 16.91 l
16.69 -11.27 l
16.70 -33.84 l
16.69 22.56 l
16.70 112.78 l
16.70 78.96 l
16.69 11.27 l
16.70 11.28 l
16.69 45.12 l
16.70 -5.64 l
16.69 -50.76 l
16.70 22.56 l
16.69 95.87 l
16.70 -163.54 l
16.70 124.06 l
16.69 -45.11 l
16.70 50.75 l
16.69 0 l
16.70 0 l
16.69 -56.39 l
16.70 -95.87 l
o
ep
%%Trailer
%%Pages: 1
%%EOF
