%!PS-Adobe-3.0 EPSF-3.0
%%DocumentNeededResources: font Helvetica
%%+ font Helvetica-Bold
%%+ font Helvetica-Oblique
%%+ font Helvetica-BoldOblique
%%+ font Symbol
%%Title: R Graphics Output
%%Creator: R Software
%%Pages: (atend)
%%BoundingBox: 0 0 504 504
%%EndComments
%%BeginProlog
/bp  { gs sRGB gs } def
% begin .ps.prolog
/gs  { gsave } bind def
/gr  { grestore } bind def
/ep  { showpage gr gr } bind def
/m   { moveto } bind def
/l  { rlineto } bind def
/np  { newpath } bind def
/cp  { closepath } bind def
/f   { fill } bind def
/o   { stroke } bind def
/c   { newpath 0 360 arc } bind def
/r   { 4 2 roll moveto 1 copy 3 -1 roll exch 0 exch rlineto 0 rlineto -1 mul 0 exch rlineto closepath } bind def
/p1  { stroke } bind def
/p2  { gsave bg fill grestore newpath } bind def
/p3  { gsave bg fill grestore stroke } bind def
/p6  { gsave bg eofill grestore newpath } bind def
/p7  { gsave bg eofill grestore stroke } bind def
/t   { 5 -2 roll moveto gsave rotate
       1 index stringwidth pop
       mul neg 0 rmoveto show grestore } bind def
/ta  { 4 -2 roll moveto gsave rotate show } bind def
/tb  { 2 -1 roll 0 rmoveto show } bind def
/cl  { grestore gsave newpath 3 index 3 index moveto 1 index
       4 -1 roll lineto  exch 1 index lineto lineto
       closepath clip newpath } bind def
/rgb { setrgbcolor } bind def
/s   { scalefont setfont } bind def
% end   .ps.prolog
/sRGB { [ /CIEBasedABC
          << /DecodeLMN
               [ { dup 0.03928 le
                        {12.92321 div}
                        {0.055 add 1.055 div 2.4 exp }
                     ifelse
                 } bind dup dup
               ]
             /MatrixLMN [0.412457 0.212673 0.019334
                         0.357576 0.715152 0.119192
                         0.180437 0.072175 0.950301]
             /WhitePoint [0.9505 1.0 1.0890]
           >>
         ] setcolorspace } bind def
/srgb { setcolor } bind def
%%IncludeResource: font Helvetica
/Helvetica findfont
dup length dict begin
  {1 index /FID ne {def} {pop pop} ifelse} forall
  /Encoding ISOLatin1Encoding def
  currentdict
  end
/Font1 exch definefont pop
%%IncludeResource: font Helvetica-Bold
/Helvetica-Bold findfont
dup length dict begin
  {1 index /FID ne {def} {pop pop} ifelse} forall
  /Encoding ISOLatin1Encoding def
  currentdict
  end
/Font2 exch definefont pop
%%IncludeResource: font Helvetica-Oblique
/Helvetica-Oblique findfont
dup length dict begin
  {1 index /FID ne {def} {pop pop} ifelse} forall
  /Encoding ISOLatin1Encoding def
  currentdict
  end
/Font3 exch definefont pop
%%IncludeResource: font Helvetica-BoldOblique
/Helvetica-BoldOblique findfont
dup length dict begin
  {1 index /FID ne {def} {pop pop} ifelse} forall
  /Encoding ISOLatin1Encoding def
  currentdict
  end
/Font4 exch definefont pop
%%IncludeResource: font Symbol
/Symbol findfont
dup length dict begin
  {1 index /FID ne {def} {pop pop} ifelse} forall
  currentdict
  end
/Font5 exch definefont pop
%%EndProlog
%%Page: 1 1
bp
59.04 73.44 473.76 444.96 cl
0 0 0 srgb
0.75 setlinewidth
[] 0 setdash
1 setlinecap
1 setlinejoin
10.00 setmiterlimit
np
59.04 228.24 m
18.03 -30.96 l
18.03 61.92 l
18.03 -154.80 l
18.04 61.92 l
18.03 30.96 l
18.03 -61.92 l
18.03 123.84 l
18.03 -92.88 l
18.03 0 l
18.03 154.80 l
18.03 -216.72 l
18.04 154.80 l
18.03 -61.92 l
18.03 0 l
18.03 -30.96 l
18.03 -30.96 l
18.03 185.76 l
18.03 -154.80 l
18.03 0 l
18.04 216.72 l
18.03 -123.84 l
18.03 0 l
18.03 -30.96 l
o
59.04 228.24 2.70 c p1
77.07 197.28 2.70 c p1
95.10 259.20 2.70 c p1
113.13 104.40 2.70 c p1
131.17 166.32 2.70 c p1
149.20 197.28 2.70 c p1
167.23 135.36 2.70 c p1
185.26 259.20 2.70 c p1
203.29 166.32 2.70 c p1
221.32 166.32 2.70 c p1
239.35 321.12 2.70 c p1
257.38 104.40 2.70 c p1
275.42 259.20 2.70 c p1
293.45 197.28 2.70 c p1
311.48 197.28 2.70 c p1
329.51 166.32 2.70 c p1
347.54 135.36 2.70 c p1
365.57 321.12 2.70 c p1
383.60 166.32 2.70 c p1
401.63 166.32 2.70 c p1
419.67 383.04 2.70 c p1
437.70 259.20 2.70 c p1
455.73 259.20 2.70 c p1
473.76 228.24 2.70 c p1
0.00 0.00 504.00 504.00 cl
0 0 0 srgb
0.75 setlinewidth
[] 0 setdash
1 setlinecap
1 setlinejoin
10.00 setmiterlimit
np
131.17 73.44 m
270.46 0 l
o
np
131.17 73.44 m
0 -7.20 l
o
np
221.32 73.44 m
0 -7.20 l
o
np
311.48 73.44 m
0 -7.20 l
o
np
401.63 73.44 m
0 -7.20 l
o
/Font1 findfont 12 s
131.17 47.52 (5) .5 0 t
221.32 47.52 (10) .5 0 t
311.48 47.52 (15) .5 0 t
401.63 47.52 (20) .5 0 t
np
59.04 73.44 m
0 371.52 l
o
np
59.04 73.44 m
-7.20 0 l
o
np
59.04 135.36 m
-7.20 0 l
o
np
59.04 197.28 m
-7.20 0 l
o
np
59.04 259.20 m
-7.20 0 l
o
np
59.04 321.12 m
-7.20 0 l
o
np
59.04 383.04 m
-7.20 0 l
o
np
59.04 444.96 m
-7.20 0 l
o
41.76 73.44 (0) .5 90 t
41.76 135.36 (2) .5 90 t
41.76 197.28 (4) .5 90 t
41.76 259.20 (6) .5 90 t
41.76 321.12 (8) .5 90 t
41.76 383.04 (10) .5 90 t
41.76 444.96 (12) .5 90 t
np
59.04 73.44 m
414.72 0 l
0 371.52 l
-414.72 0 l
0 -371.52 l
o
0.00 0.00 504.00 504.00 cl
/Font1 findfont 12 s
0 0 0 srgb
225.38 18.72 (Hour of the da) 0 ta
-0.360 (y) tb gr
12.96 259.20 (Number of Occurrences) .5 90 t
ep
%%Trailer
%%Pages: 1
%%EOF
