%!PS-Adobe-3.0 EPSF-3.0
%%DocumentNeededResources: font Helvetica
%%+ font Helvetica-Bold
%%+ font Helvetica-Oblique
%%+ font Helvetica-BoldOblique
%%+ font Symbol
%%Title: R Graphics Output
%%Creator: R Software
%%Pages: (atend)
%%BoundingBox: 0 0 504 504
%%EndComments
%%BeginProlog
/bp  { gs sRGB gs } def
% begin .ps.prolog
/gs  { gsave } bind def
/gr  { grestore } bind def
/ep  { showpage gr gr } bind def
/m   { moveto } bind def
/l  { rlineto } bind def
/np  { newpath } bind def
/cp  { closepath } bind def
/f   { fill } bind def
/o   { stroke } bind def
/c   { newpath 0 360 arc } bind def
/r   { 4 2 roll moveto 1 copy 3 -1 roll exch 0 exch rlineto 0 rlineto -1 mul 0 exch rlineto closepath } bind def
/p1  { stroke } bind def
/p2  { gsave bg fill grestore newpath } bind def
/p3  { gsave bg fill grestore stroke } bind def
/p6  { gsave bg eofill grestore newpath } bind def
/p7  { gsave bg eofill grestore stroke } bind def
/t   { 5 -2 roll moveto gsave rotate
       1 index stringwidth pop
       mul neg 0 rmoveto show grestore } bind def
/ta  { 4 -2 roll moveto gsave rotate show } bind def
/tb  { 2 -1 roll 0 rmoveto show } bind def
/cl  { grestore gsave newpath 3 index 3 index moveto 1 index
       4 -1 roll lineto  exch 1 index lineto lineto
       closepath clip newpath } bind def
/rgb { setrgbcolor } bind def
/s   { scalefont setfont } bind def
% end   .ps.prolog
/sRGB { [ /CIEBasedABC
          << /DecodeLMN
               [ { dup 0.03928 le
                        {12.92321 div}
                        {0.055 add 1.055 div 2.4 exp }
                     ifelse
                 } bind dup dup
               ]
             /MatrixLMN [0.412457 0.212673 0.019334
                         0.357576 0.715152 0.119192
                         0.180437 0.072175 0.950301]
             /WhitePoint [0.9505 1.0 1.0890]
           >>
         ] setcolorspace } bind def
/srgb { setcolor } bind def
%%IncludeResource: font Helvetica
/Helvetica findfont
dup length dict begin
  {1 index /FID ne {def} {pop pop} ifelse} forall
  /Encoding ISOLatin1Encoding def
  currentdict
  end
/Font1 exch definefont pop
%%IncludeResource: font Helvetica-Bold
/Helvetica-Bold findfont
dup length dict begin
  {1 index /FID ne {def} {pop pop} ifelse} forall
  /Encoding ISOLatin1Encoding def
  currentdict
  end
/Font2 exch definefont pop
%%IncludeResource: font Helvetica-Oblique
/Helvetica-Oblique findfont
dup length dict begin
  {1 index /FID ne {def} {pop pop} ifelse} forall
  /Encoding ISOLatin1Encoding def
  currentdict
  end
/Font3 exch definefont pop
%%IncludeResource: font Helvetica-BoldOblique
/Helvetica-BoldOblique findfont
dup length dict begin
  {1 index /FID ne {def} {pop pop} ifelse} forall
  /Encoding ISOLatin1Encoding def
  currentdict
  end
/Font4 exch definefont pop
%%IncludeResource: font Symbol
/Symbol findfont
dup length dict begin
  {1 index /FID ne {def} {pop pop} ifelse} forall
  currentdict
  end
/Font5 exch definefont pop
%%EndProlog
%%Page: 1 1
bp
0.00 0.00 504.00 504.00 cl
/bg { 0.7451 0.7451 0.7451 srgb } def
0 0 0 srgb
0.75 setlinewidth
[] 0 setdash
1 setlinecap
1 setlinejoin
10.00 setmiterlimit
74.40 73.44 16.13 347.31 r p3
93.76 73.44 16.13 298.09 r p3
113.12 73.44 16.13 262.67 r p3
132.48 73.44 16.13 203.94 r p3
151.85 73.44 16.13 125.39 r p3
171.21 73.44 16.13 54.59 r p3
190.57 73.44 16.13 53.86 r p3
209.93 73.44 16.13 41.28 r p3
229.29 73.44 16.13 35.10 r p3
248.65 73.44 16.13 30.79 r p3
268.01 73.44 16.13 27.53 r p3
287.37 73.44 16.13 24.32 r p3
306.74 73.44 16.13 24.02 r p3
326.10 73.44 16.13 21.41 r p3
345.46 73.44 16.13 21.04 r p3
364.82 73.44 16.13 20.46 r p3
384.18 73.44 16.13 20.21 r p3
403.54 73.44 16.13 17.23 r p3
422.90 73.44 16.13 13.72 r p3
442.27 73.44 16.13 12.74 r p3
0.00 0.00 504.00 504.00 cl
/Font1 findfont 5 s
0 0 0 srgb
84.26 22.35 (f) 90 ta
-0.150 (acebook.katana) tb gr
103.62 6.51 (google) 90 ta
-0.075 (.process) tb
-0.075 (.location) tb gr
122.98 12.35 (king.f) 90 ta
-0.150 (ar) tb
0.125 (mheroessaga) tb gr
142.35 27.63 (f) 90 ta
-0.150 (acebook.orca) tb gr
161.71 59.04 (taptu.streams) 1 90 t
181.07 16.52 (android.apps) 90 ta
-0.075 (.maps) tb gr
200.43 10.12 (google) 90 ta
-0.075 (.process) tb
-0.075 (.gapps) tb gr
219.79 -4.88 (y) 90 ta
-0.100 (ahoo) tb
-0.200 (.client.android.w) tb
-0.050 (eather) tb gr
239.15 45.15 (tumb) 90 ta
-0.100 (lr) tb gr
258.51 6.51 (joelapenna.f) 90 ta
-0.150 (oursquared) tb gr
277.88 3.45 (telena) 90 ta
-0.100 (v.android.scout_us) tb gr
297.24 59.04 (rhapsody) 1 90 t
316.60 17.91 (de) 90 ta
-0.150 (v) tb
-0.125 (e) tb
-0.150 (xper) tb
0.200 (t.w) tb
-0.050 (eather) tb gr
335.96 21.25 (android.system) 90 ta
-0.050 (ui) tb gr
355.32 59.04 (ch.bitspin.timely) 1 90 t
374.68 24.30 (umonistudio) 90 ta
-0.200 (.tile) tb gr
394.04 12.07 (king.candycr) 90 ta
0.075 (ushsaga) tb gr
413.41 5.95 (bamb) 90 ta
-0.100 (una.podcastaddict) tb gr
432.77 20.68 (contapps) 90 ta
-0.075 (.android) tb gr
452.13 18.46 (handcent.ne) 90 ta
-0.150 (xtsms) tb gr
0.00 0.00 504.00 504.00 cl
/Font1 findfont 12 s
0 0 0 srgb
12.96 182.50 (Number of Requests per da) 90 ta
-0.360 (y) tb gr
0.00 0.00 504.00 504.00 cl
0 0 0 srgb
0.75 setlinewidth
[] 0 setdash
1 setlinecap
1 setlinejoin
10.00 setmiterlimit
np
59.04 73.44 m
0 330.24 l
o
np
59.04 73.44 m
-7.20 0 l
o
np
59.04 156.00 m
-7.20 0 l
o
np
59.04 238.56 m
-7.20 0 l
o
np
59.04 321.12 m
-7.20 0 l
o
np
59.04 403.68 m
-7.20 0 l
o
/Font1 findfont 8 s
44.64 70.57 (0) 1 0 t
44.64 153.13 (10000) 1 0 t
44.64 235.69 (20000) 1 0 t
44.64 318.25 (30000) 1 0 t
44.64 400.81 (40000) 1 0 t
0.00 0.00 504.00 504.00 cl
/Font1 findfont 6 s
0 0 0 srgb
84.52 427.95 (42067) .5 90 t
103.88 378.73 (36106) .5 90 t
123.24 343.31 (31816) .5 90 t
142.60 284.58 (24702) .5 90 t
161.96 206.03 (15188) .5 90 t
181.33 135.23 (6612) .5 90 t
200.69 134.50 (6524) .5 90 t
220.05 121.92 (5000) .5 90 t
239.41 115.74 (4251) .5 90 t
258.77 111.43 (3729) .5 90 t
278.13 108.17 (3335) .5 90 t
297.49 104.96 (2946) .5 90 t
316.86 104.66 (2909) .5 90 t
336.22 102.05 (2593) .5 90 t
355.58 101.68 (2549) .5 90 t
374.94 101.10 (2478) .5 90 t
394.30 100.85 (2448) .5 90 t
413.66 97.87 (2087) .5 90 t
433.02 94.36 (1662) .5 90 t
452.38 93.38 (1543) .5 90 t
59.04 73.44 473.76 444.96 cl
0 0 0 srgb
0.75 setlinewidth
[] 0 setdash
1 setlinecap
1 setlinejoin
10.00 setmiterlimit
192.03 444.96 148.74 -241.92 r p1
/Font1 findfont 10 s
209.31 429.85 (f) 0 ta
-0.300 (acebook.katana) tb gr
209.31 418.33 (google) 0 ta
-0.150 (.process) tb
-0.150 (.location) tb gr
209.31 406.81 (king.f) 0 ta
-0.300 (ar) tb
0.250 (mheroessaga) tb gr
209.31 395.29 (f) 0 ta
-0.300 (acebook.orca) tb gr
209.31 383.77 (taptu.streams) 0 0 t
209.31 372.25 (android.apps) 0 ta
-0.150 (.maps) tb gr
209.31 360.73 (google) 0 ta
-0.150 (.process) tb
-0.150 (.gapps) tb gr
209.31 349.21 (y) 0 ta
-0.200 (ahoo) tb
-0.400 (.client.android.w) tb
-0.100 (eather) tb gr
209.31 337.69 (tumb) 0 ta
-0.200 (lr) tb gr
209.31 326.17 (joelapenna.f) 0 ta
-0.300 (oursquared) tb gr
209.31 314.65 (telena) 0 ta
-0.200 (v.android.scout_us) tb gr
209.31 303.13 (rhapsody) 0 0 t
209.31 291.61 (de) 0 ta
-0.300 (v) tb
-0.250 (e) tb
-0.300 (xper) tb
0.400 (t.w) tb
-0.100 (eather) tb gr
209.31 280.09 (android.system) 0 ta
-0.100 (ui) tb gr
209.31 268.57 (ch.bitspin.timely) 0 0 t
209.31 257.05 (umonistudio) 0 ta
-0.400 (.tile) tb gr
209.31 245.53 (king.candycr) 0 ta
0.150 (ushsaga) tb gr
209.31 234.01 (bamb) 0 ta
-0.200 (una.podcastaddict) tb gr
209.31 222.49 (contapps) 0 ta
-0.150 (.android) tb gr
209.31 210.97 (handcent.ne) 0 ta
-0.300 (xtsms) tb gr
ep
%%Trailer
%%Pages: 1
%%EOF
