%!PS-Adobe-3.0 EPSF-3.0
%%DocumentNeededResources: font Helvetica
%%+ font Helvetica-Bold
%%+ font Helvetica-Oblique
%%+ font Helvetica-BoldOblique
%%+ font Symbol
%%Title: R Graphics Output
%%Creator: R Software
%%Pages: (atend)
%%BoundingBox: 0 0 504 504
%%EndComments
%%BeginProlog
/bp  { gs sRGB gs } def
% begin .ps.prolog
/gs  { gsave } bind def
/gr  { grestore } bind def
/ep  { showpage gr gr } bind def
/m   { moveto } bind def
/l  { rlineto } bind def
/np  { newpath } bind def
/cp  { closepath } bind def
/f   { fill } bind def
/o   { stroke } bind def
/c   { newpath 0 360 arc } bind def
/r   { 4 2 roll moveto 1 copy 3 -1 roll exch 0 exch rlineto 0 rlineto -1 mul 0 exch rlineto closepath } bind def
/p1  { stroke } bind def
/p2  { gsave bg fill grestore newpath } bind def
/p3  { gsave bg fill grestore stroke } bind def
/p6  { gsave bg eofill grestore newpath } bind def
/p7  { gsave bg eofill grestore stroke } bind def
/t   { 5 -2 roll moveto gsave rotate
       1 index stringwidth pop
       mul neg 0 rmoveto show grestore } bind def
/ta  { 4 -2 roll moveto gsave rotate show } bind def
/tb  { 2 -1 roll 0 rmoveto show } bind def
/cl  { grestore gsave newpath 3 index 3 index moveto 1 index
       4 -1 roll lineto  exch 1 index lineto lineto
       closepath clip newpath } bind def
/rgb { setrgbcolor } bind def
/s   { scalefont setfont } bind def
% end   .ps.prolog
/sRGB { [ /CIEBasedABC
          << /DecodeLMN
               [ { dup 0.03928 le
                        {12.92321 div}
                        {0.055 add 1.055 div 2.4 exp }
                     ifelse
                 } bind dup dup
               ]
             /MatrixLMN [0.412457 0.212673 0.019334
                         0.357576 0.715152 0.119192
                         0.180437 0.072175 0.950301]
             /WhitePoint [0.9505 1.0 1.0890]
           >>
         ] setcolorspace } bind def
/srgb { setcolor } bind def
%%IncludeResource: font Helvetica
/Helvetica findfont
dup length dict begin
  {1 index /FID ne {def} {pop pop} ifelse} forall
  /Encoding ISOLatin1Encoding def
  currentdict
  end
/Font1 exch definefont pop
%%IncludeResource: font Helvetica-Bold
/Helvetica-Bold findfont
dup length dict begin
  {1 index /FID ne {def} {pop pop} ifelse} forall
  /Encoding ISOLatin1Encoding def
  currentdict
  end
/Font2 exch definefont pop
%%IncludeResource: font Helvetica-Oblique
/Helvetica-Oblique findfont
dup length dict begin
  {1 index /FID ne {def} {pop pop} ifelse} forall
  /Encoding ISOLatin1Encoding def
  currentdict
  end
/Font3 exch definefont pop
%%IncludeResource: font Helvetica-BoldOblique
/Helvetica-BoldOblique findfont
dup length dict begin
  {1 index /FID ne {def} {pop pop} ifelse} forall
  /Encoding ISOLatin1Encoding def
  currentdict
  end
/Font4 exch definefont pop
%%IncludeResource: font Symbol
/Symbol findfont
dup length dict begin
  {1 index /FID ne {def} {pop pop} ifelse} forall
  currentdict
  end
/Font5 exch definefont pop
%%EndProlog
%%Page: 1 1
bp
0.00 0.00 504.00 504.00 cl
/bg { 0.7451 0.7451 0.7451 srgb } def
0 0 0 srgb
0.75 setlinewidth
[] 0 setdash
1 setlinecap
1 setlinejoin
10.00 setmiterlimit
74.40 73.44 16.13 346.76 r p3
93.76 73.44 16.13 274.54 r p3
113.12 73.44 16.13 64.75 r p3
132.48 73.44 16.13 36.87 r p3
151.85 73.44 16.13 19.51 r p3
171.21 73.44 16.13 18.26 r p3
190.57 73.44 16.13 14.82 r p3
209.93 73.44 16.13 7.67 r p3
229.29 73.44 16.13 4.46 r p3
248.65 73.44 16.13 4.21 r p3
268.01 73.44 16.13 2.24 r p3
287.37 73.44 16.13 1.90 r p3
306.74 73.44 16.13 1.56 r p3
326.10 73.44 16.13 1.43 r p3
345.46 73.44 16.13 1.17 r p3
364.82 73.44 16.13 1.14 r p3
384.18 73.44 16.13 1.08 r p3
403.54 73.44 16.13 0.89 r p3
422.90 73.44 16.13 0.80 r p3
442.27 73.44 16.13 0.82 r p3
0.00 0.00 504.00 504.00 cl
/Font1 findfont 4 s
0 0 0 srgb
83.90 4.81 (A) 90 ta
-0.120 (CCESS_NETW) tb
-0.080 (ORK_ST) tb
-0.480 (A) tb
-0.480 (TE) tb gr
103.26 34.14 (W) 90 ta
-0.200 (AKE_LOCK) tb gr
122.63 8.58 (A) 90 ta
-0.120 (CCESS_FINE_LOCA) tb
-0.480 (TION) tb gr
141.99 26.15 (GET_A) 90 ta
-0.120 (CCOUNTS) tb gr
161.35 16.81 (A) 90 ta
-0.120 (CCESS_WIFI_ST) tb
-0.480 (A) tb
-0.480 (TE) tb gr
180.71 10.58 (UPD) 90 ta
-0.160 (A) tb
-0.480 (TE_DEVICE_ST) tb
-0.480 (A) tb
-0.480 (TS) tb gr
200.07 0.80 (A) 90 ta
-0.120 (CCESS_CO) tb
-0.080 (ARSE_LOCA) tb
-0.480 (TION) tb gr
219.43 3.70 (A) 90 ta
-0.200 (UTHENTICA) tb
-0.480 (TE_A) tb
-0.120 (CCOUNTS) tb gr
238.79 59.04 (READ_SYNC_SETTINGS) 1 90 t
258.16 59.04 (INTERNET) 1 90 t
277.52 16.14 (CHANGE_WIFI_ST) 90 ta
-0.480 (A) tb
-0.480 (TE) tb gr
296.88 32.81 (ST) 90 ta
-0.480 (A) tb
-0.480 (TUS_BAR) tb gr
316.24 23.92 (READ_CALEND) 90 ta
-0.160 (AR) tb gr
335.60 59.04 (READ_SMS) 1 90 t
354.96 59.04 (WRITE_SYNC_SETTINGS) 1 90 t
374.32 -22.31 (CHANGE_COMPONENT_ENABLED_ST) 90 ta
-0.480 (A) tb
-0.480 (TE) tb gr
393.68 16.36 (READ_PHONE_ST) 90 ta
-0.480 (A) tb
-0.480 (TE) tb gr
413.05 41.92 (VIBRA) 90 ta
-0.480 (TE) tb gr
432.41 4.80 (A) 90 ta
-0.120 (CCESS_ALL_DO) tb
-0.120 (WNLO) tb
-0.080 (ADS) tb gr
451.77 59.04 (READ_LOGS) 1 90 t
0.00 0.00 504.00 504.00 cl
/Font1 findfont 12 s
0 0 0 srgb
12.96 182.50 (Number of Requests per da) 90 ta
-0.360 (y) tb gr
0.00 0.00 504.00 504.00 cl
0 0 0 srgb
0.75 setlinewidth
[] 0 setdash
1 setlinecap
1 setlinejoin
10.00 setmiterlimit
np
59.04 73.44 m
0 371.52 l
o
np
59.04 73.44 m
-7.20 0 l
o
np
59.04 147.74 m
-7.20 0 l
o
np
59.04 222.05 m
-7.20 0 l
o
np
59.04 296.35 m
-7.20 0 l
o
np
59.04 370.66 m
-7.20 0 l
o
np
59.04 444.96 m
-7.20 0 l
o
/Font1 findfont 8 s
44.64 70.57 (0) 1 0 t
44.64 144.87 (5000) 1 0 t
44.64 219.18 (10000) 1 0 t
44.64 293.48 (15000) 1 0 t
44.64 367.78 (20000) 1 0 t
44.64 442.09 (25000) 1 0 t
0.00 0.00 504.00 504.00 cl
/Font1 findfont 6 s
0 0 0 srgb
84.52 427.40 (23334) .5 90 t
103.88 355.18 (18474) .5 90 t
123.24 145.39 (4357) .5 90 t
142.60 117.51 (2481) .5 90 t
161.96 100.15 (1313) .5 90 t
181.33 98.90 (1229) .5 90 t
200.69 95.46 (997) .5 90 t
220.05 88.31 (516) .5 90 t
239.41 85.10 (300) .5 90 t
258.77 84.85 (283) .5 90 t
278.13 82.88 (151) .5 90 t
297.49 82.54 (128) .5 90 t
316.86 82.20 (105) .5 90 t
336.22 82.07 (96) .5 90 t
355.58 81.81 (79) .5 90 t
374.95 81.78 (77) .5 90 t
394.30 81.72 (73) .5 90 t
413.66 81.53 (60) .5 90 t
433.02 81.44 (54) .5 90 t
452.34 81.46 (55) .5 90 t
59.04 73.44 473.76 444.96 cl
0 0 0 srgb
0.75 setlinewidth
[] 0 setdash
1 setlinecap
1 setlinejoin
10.00 setmiterlimit
155.12 444.96 222.57 -241.92 r p1
/Font1 findfont 10 s
172.40 429.85 (A) 0 ta
-0.300 (CCESS_NETW) tb
-0.200 (ORK_ST) tb
-1.200 (A) tb
-1.200 (TE) tb gr
172.40 418.33 (W) 0 ta
-0.500 (AKE_LOCK) tb gr
172.40 406.81 (A) 0 ta
-0.300 (CCESS_FINE_LOCA) tb
-1.200 (TION) tb gr
172.40 395.29 (GET_A) 0 ta
-0.300 (CCOUNTS) tb gr
172.40 383.77 (A) 0 ta
-0.300 (CCESS_WIFI_ST) tb
-1.200 (A) tb
-1.200 (TE) tb gr
172.40 372.25 (UPD) 0 ta
-0.400 (A) tb
-1.200 (TE_DEVICE_ST) tb
-1.200 (A) tb
-1.200 (TS) tb gr
172.40 360.73 (A) 0 ta
-0.300 (CCESS_CO) tb
-0.200 (ARSE_LOCA) tb
-1.200 (TION) tb gr
172.40 349.21 (A) 0 ta
-0.500 (UTHENTICA) tb
-1.200 (TE_A) tb
-0.300 (CCOUNTS) tb gr
172.40 337.69 (READ_SYNC_SETTINGS) 0 0 t
172.40 326.17 (INTERNET) 0 0 t
172.40 314.65 (CHANGE_WIFI_ST) 0 ta
-1.200 (A) tb
-1.200 (TE) tb gr
172.40 303.13 (ST) 0 ta
-1.200 (A) tb
-1.200 (TUS_BAR) tb gr
172.40 291.61 (READ_CALEND) 0 ta
-0.400 (AR) tb gr
172.40 280.09 (READ_SMS) 0 0 t
172.40 268.57 (WRITE_SYNC_SETTINGS) 0 0 t
172.40 257.05 (CHANGE_COMPONENT_ENABLED_ST) 0 ta
-1.200 (A) tb
-1.200 (TE) tb gr
172.40 245.53 (READ_PHONE_ST) 0 ta
-1.200 (A) tb
-1.200 (TE) tb gr
172.40 234.01 (VIBRA) 0 ta
-1.200 (TE) tb gr
172.40 222.49 (A) 0 ta
-0.300 (CCESS_ALL_DO) tb
-0.300 (WNLO) tb
-0.200 (ADS) tb gr
172.40 210.97 (READ_LOGS) 0 0 t
ep
%%Trailer
%%Pages: 1
%%EOF
